{
  "version": 2,
  "routes": [
    {
      "src": "/api/pool/daily",
      "methods": ["GET"],
      "dest": "/api/getPoolDaily.js"
    },
    {
      "src": "/api/pool/hourly",
      "methods": ["GET"],
      "dest": "/api/getPoolHourly.js"
    },
    {
      "src": "/api/price/daily",
      "methods": ["GET"],
      "dest": "/api/getPriceDaily.js"
    },
    {
      "src": "/api/price/hourly",
      "methods": ["GET"],
      "dest": "/api/getPriceHourly.js"
    },
    {
      "src": "/api/staker",
      "methods": ["GET"],
      "dest": "/api/getUserTxs.js"
    },
    {
      "src": "/api/calculator",
      "methods": ["GET"],
      "dest": "/api/calculation.ts"
    },
    {
      "src": "/api/v1/calculator",
      "methods": ["GET"],
      "dest": "/api/calculation.ts"
    },
    {
      "src": "/api/v1/history/liquidity",
      "methods": ["GET"],
      "dest": "/api/calculation.ts"
    },
    {
      "src": "/api/weekly",
      "methods": ["GET"],
      "dest": "/api/getWeekly.js"
    },
    {
      "src": "/api/v1/block/detail",
      "methods": ["GET"],
      "dest": "/api/poolheightdetail.ts"
    },
    {
      "src": "/api/v3/staker/pool",
      "methods": ["GET"],
      "dest": "/api/stakerPool.js"
    },
    {
      "src": "/api/v2/staker/pool",
      "methods": ["GET"],
      "dest": "/api/stakerPoolNew.js"
    },
    {
      "src": "/api/v1/staker/reset",
      "methods": ["GET"],
      "dest": "/api/resetCalculation.ts"
    },
    {
      "src": "/api/v2/staker/reset",
      "methods": ["GET"],
      "dest": "/api/resetCalculationNew"
    },
    {
      "src": "/api/v1/staker",
      "methods": ["GET"],
      "dest": "/api/getUserTxs.js"
    },
    {
      "src": "/api/v1/lastPool",
      "methods": ["GET"],
      "dest": "/api/getLastestPool.ts"
    },
    {
      "src": "/api/v1/nodeip",
      "methods": ["GET"],
      "dest": "/api/getServerIP.js"
    },
    {
      "src": "/api/v2/history/liquidity",
      "methods": ["GET"],
      "dest": "/api/stakerHistorical.ts"
    },
    {
      "src": "/api/v2/history/fee",
      "methods": ["GET"],
      "dest": "/api/lpHistory.ts"
    },
    {
      "src": "/api/v1/asset/price",
      "methods": ["GET"],
      "dest": "/api/getLastestPrice.ts"
    },
    {
      "src": "/api/v1/log",
      "methods": ["GET"],
      "dest": "/api/logUsage.ts"
    },
    {
      "src": "/api/v1/last",
      "methods": ["GET"],
      "dest": "/api/stakerLastState.js"
    },
    {
      "src": "/api/v1/ranking",
      "methods": ["GET"],
      "dest": "/api/ranking.js"
    },
    {
      "src": "/api/v1/ranking/total",
      "methods": ["GET"],
      "dest": "/api/rankingTotal.js"
    },
    {
      "src": "/api/v1/ranking/average",
      "methods": ["GET"],
      "dest": "/api/rankingAverage.js"
    },
    {
      "src": "/v2/average/pools",
      "methods": ["GET"],
      "dest": "/api/poolAverage.js"
    },
    {
      "src": "/v2/fee",
      "methods": ["GET", "POST", "OPTIONS"],
      "headers": {
        "Access-Control-Allow-Origin": "*",
        "Access-Control-Allow-Headers": "Origin, X-Requested-With, Content-Type, Accept",
        "Access-Control-Allow-Credentials": "true"
      },
      "dest": "/api/feeEarned.ts"
    },
    {
      "src": "/v2/fee1",
      "methods": ["GET", "POST", "OPTIONS"],
      "headers": {
        "Access-Control-Allow-Origin": "*",
        "Access-Control-Allow-Headers": "Origin, X-Requested-With, Content-Type, Accept",
        "Access-Control-Allow-Credentials": "true"
      },
      "dest": "/api/feeEarned1.ts"
    }
  ]
}
